../Core/Src/main.c:109:5:main	104	static
../Core/Src/main.c:233:6:SystemClock_Config	104	static
../Core/Src/main.c:279:13:MX_I2C1_Init	8	static
../Core/Src/main.c:327:13:MX_USART2_UART_Init	8	static
../Core/Src/main.c:360:13:MX_DMA_Init	16	static
../Core/Src/main.c:378:13:MX_GPIO_Init	56	static
../Core/Src/main.c:407:6:pause_sec	16	static
../Core/Src/main.c:418:9:decToBcd	32	static
../Core/Src/main.c:428:5:bcdToDec	24	static
../Core/Src/main.c:438:6:setTime	48	static
../Core/Src/main.c:460:6:getTime	32	static
../Core/Src/main.c:484:5:epochFromTime	24	static
../Core/Src/main.c:547:6:timeToString	8	static
../Core/Src/main.c:577:6:Error_Handler	8	static,ignoring_inline_asm
